<?xml version="1.0" encoding="iso-8859-1"?>
<!-- Generator: Adobe Illustrator 23.0.0, SVG Export Plug-In . SVG Version: 6.00 Build 0)  -->
<svg version="1.0" id="Layer_1" xmlns="http://www.w3.org/2000/svg" xmlns:xlink="http://www.w3.org/1999/xlink" x="0px" y="0px"
	 viewBox="0 0 195 100" style="enable-background:new 0 0 195 100;" xml:space="preserve">
<style type="text/css">
	.st0{fill:#ED1D26;}
	.st1{fill:#ED1F27;}
</style>
<path class="st0" d="M71.8,64c3.3,0,6.7-0.2,10,0.1c4.5,0.3,5.4,2.1,4.3,6.5c-0.6,2.4-2.9,5.5,0.4,7.1c3.4,1.6,6.3-0.2,8.2-3.5
	c3.3-5.6,3-7.9-2.5-12.2c-4.3-3.4-8.9-6.5-12.6-10.6c-5.5-6.1-7.9-12.9-5.8-21.3c4.2-16.8,15.2-25.9,32.5-26
	c7.9,0,15.8-0.5,23.4,2.7c12.8,5.3,14.4,18.5,10.3,29.2c-0.7,1.9-1.9,2-3.4,2c-6,0-12,0.1-18,0c-6.1-0.2-7.3-1.8-5.6-7.6
	c0.6-2.2,2.2-4.8-0.7-6.1c-2.7-1.2-5.5-0.3-7.4,2.4c-4.3,5.9-3.9,8.9,1.8,13.4c4.7,3.7,9.8,6.8,13.6,11.6c4.6,5.9,6.7,12.1,4.8,19.8
	c-4.2,17.2-15.2,26.4-32.8,26.4c-7.9,0-15.8,0.5-23.5-2.8c-13.7-6-13.7-19.6-9.9-29.8c0.6-1.6,1.7-1.3,2.8-1.3
	C65.1,64,68.4,64,71.8,64z"/>
<path class="st1" d="M126.8,96.2c12.2-30.1,24.2-59.4,36.1-88.8c0.7-1.8,1.7-2.7,3.6-2.6c7,0.1,14,0,21,0c4.7,0,2,2.8,1.4,4.3
	c-8,20-16.2,39.9-24.3,59.8c-3.3,8.1-6.5,16.2-9.8,24.2c-0.6,1.3-0.7,3.3-3.1,3.1c-1.9-0.2-3.3,0-2.1-2.8
	c6.1-13.8,10.3-28.4,18-41.5c0.7-1.3,0.9-2.5,0-3.7c-0.6-0.9-1.5-1.4-2.6-1.1c-1,0.3-1.9,0.9-2,2c-0.7,9.3-6,16.9-9,25.4
	c-2.4,6.5-5.3,12.8-7.7,19.2c-0.6,1.6-1.3,2.9-3.1,2.3c-2.7-0.8-0.6-2.6-0.2-3.5c4.7-10.2,7.4-21.4,13.8-30.9
	c0.7-1.1,0.6-2.3-0.2-3.2c-0.6-0.7-1.5-1.3-2.6-0.7c-1.1,0.5-1.8,1.2-2.1,2.5c-2.4,12-8.7,22.6-12.8,34c-0.7,2-2,2.3-3.4,1.7
	c-1.8-0.8-0.2-2,0.2-2.9c3.8-7.6,5.1-16.3,10.7-23.1c0.8-1,0.6-2.4,0-3.3c-0.6-0.9-1.8-0.6-2.8-0.6c-1.5,0-1.7,1-2,2.3
	c-1.7,9.3-6.8,17.4-9.9,26.2C131.2,97.2,129.2,95.7,126.8,96.2z"/>
<path class="st1" d="M9,96.1c5.4-13.2,10.7-25.9,15.9-38.7C31.6,41,38.4,24.6,44.8,8.1c1.3-3.3,2.9-4,6.3-2.8
	C45.4,19,39.7,32.6,34.4,46.4c-0.8,2-4.9,2.8-2.5,6.1c1.7,2.3,4.5,1.7,5-1.2c0.2-1.3-0.3-2.8,0.2-3.9c4-10.1,8.1-20.1,12.2-30.2
	c1.4-3.4,2.8-6.7,4.1-10.1c0.7-1.8,1.8-3,3.6-2.2c2,0.9,0.1,2.5-0.2,3.3c-3.5,9-7.3,18-11,26.9c-0.5,1.3-0.9,2.7-2.5,3.4
	c-1.2,0.5-1.8,2.1-0.8,3.4c0.7,0.9,1.6,2,2.9,1.6c1.3-0.3,2.4-1.2,2.6-2.7C49.7,28.7,56.5,18.4,60.5,7c0.7-2,1-1.9,4.4-1.8
	c-3.1,7.6-6.3,15.2-9.4,22.8c-0.4,1-1,1.8-2.1,2.5c-1.1,0.7-1.7,1.9-0.8,3.4c0.8,1.3,1.9,1.2,3,1.1c1.3-0.1,2.2-0.9,2.3-2.2
	c0.8-9.2,6.5-16.7,9.1-25.3c0.9-2.9,2.9-3.3,5.6-2.3C60.8,34.6,48.8,63.9,37,93.3c-0.7,1.8-1.6,2.9-3.9,2.9
	C25.2,96,17.4,96.1,9,96.1z"/>
</svg>
