<svg width="420" height="184" viewBox="0 0 420 184" fill="none" xmlns="http://www.w3.org/2000/svg">
<path d="M98.326 57.5896C102.926 58.9896 107.026 60.4896 110.626 62.5896C122.926 69.5896 127.026 80.1896 123.026 94.4896C117.626 113.99 101.126 126.69 80.7259 126.79C69.1259 126.89 57.5259 126.79 45.9259 126.89C43.6259 126.89 42.9259 126.39 42.9259 123.99C43.0259 109.99 43.0259 96.0896 42.9259 82.0896C42.9259 79.7896 43.6259 79.2896 45.7259 79.2896C54.0259 79.4896 61.7259 86.1896 63.1259 94.4896C63.3259 95.6896 63.3259 96.9896 63.5259 98.1896C63.8259 100.79 62.2259 104.39 64.2259 105.89C66.0259 107.19 69.4259 106.39 72.1259 106.39C76.8259 106.39 81.6259 106.79 86.2259 105.59C97.7259 102.79 104.726 93.2896 105.026 79.9896C105.226 71.8896 104.226 68.3896 98.326 57.5896Z" fill="#006699"/>
<path d="M124.026 67.0896C123.226 67.3896 122.826 66.9896 122.426 66.4896C113.926 57.1896 102.626 53.6896 90.7259 51.6896C77.5259 49.4896 64.2259 50.5896 50.9259 50.3896C39.7259 50.1896 28.9259 43.0896 24.6259 32.8896C23.9259 31.2896 23.4259 30.2896 26.0259 30.2896C45.8259 30.5896 65.7259 29.3896 85.4259 30.7896C104.626 32.1896 119.626 44.8896 124.126 65.8896C124.126 66.2896 124.026 66.7896 124.026 67.0896Z" fill="#006699"/>
<path d="M315.426 96.5897C316.326 95.6897 316.926 95.0897 317.626 94.3897C324.626 94.3897 331.726 94.3897 338.826 94.3897C340.226 97.9897 341.026 101.59 342.926 104.89C345.526 106.79 347.726 108.79 350.926 108.89C351.626 108.89 352.526 109.09 353.226 109.09C356.426 109.19 359.626 109.29 362.826 109.09C365.026 108.99 367.126 108.09 368.826 106.89C371.926 104.69 372.926 99.5897 371.126 96.1897C370.926 95.6897 370.626 95.2897 370.226 94.4897C370.026 94.3897 370.026 93.9897 369.626 93.6897C367.626 91.4897 364.326 91.4897 361.626 90.7897C355.126 88.9897 348.326 87.8897 341.926 85.5897C336.726 83.6897 331.426 81.7897 327.126 78.2897C322.526 74.5897 318.326 70.2897 318.126 63.7897C316.326 59.9897 317.026 55.7897 317.426 51.9897C317.926 47.8897 319.626 43.8897 322.526 40.5897C327.226 35.2897 332.926 31.4897 339.726 29.4897C341.826 28.8897 343.826 27.9897 346.126 27.9897C347.926 27.8897 349.626 27.3897 351.426 27.1897C353.126 27.0897 354.926 26.9897 356.626 27.1897C364.426 27.9897 372.026 29.1897 379.026 33.2897C384.426 36.4897 388.926 40.4897 391.426 46.3897C391.626 46.7897 393.126 52.6897 393.126 53.0897C393.126 54.7897 393.126 56.5897 393.126 58.1897C391.626 59.7897 389.926 60.4897 387.826 60.3897C384.326 60.2897 380.826 60.3897 377.326 60.3897C376.026 60.3897 374.726 60.3897 374.226 60.3897C371.526 59.5897 370.726 58.1897 370.026 56.1897C368.126 51.1897 361.326 48.4897 359.326 47.7897C357.326 47.0897 354.926 47.0897 352.726 47.3897C350.826 47.6897 349.626 47.7897 348.526 48.0897C346.026 48.9897 342.726 50.3897 341.726 53.6897C341.426 54.6897 340.726 56.2897 341.726 57.9897C344.726 63.2897 350.326 64.3897 355.426 66.4897C360.026 68.3897 365.026 69.0897 369.826 70.6897C374.826 72.3897 379.726 74.2897 384.326 76.8897C388.126 79.0897 391.126 81.9897 393.126 85.8897C393.726 87.0897 394.226 88.2897 394.826 89.6897C395.326 93.2897 396.026 97.0897 395.926 100.89C395.726 106.89 393.726 112.29 390.226 116.79C387.226 120.59 383.626 124.09 378.826 125.89C374.626 127.49 370.426 128.69 365.826 129.29C363.626 129.59 361.526 130.09 358.726 130.09C355.626 130.19 352.526 130.29 349.326 129.49C346.326 128.79 343.726 128.39 340.926 127.49C335.226 125.69 327.626 121.79 323.926 117.89C321.326 115.19 317.326 108.69 316.526 105.19C316.026 102.49 315.826 99.5897 315.426 96.5897Z" fill="#036E9B"/>
<path d="M233.526 126.19C229.826 124.89 228.826 122.39 229.026 119.19C229.226 115.59 229.026 111.89 229.026 108.99C230.326 104.99 232.826 104.39 236.126 104.39C257.826 104.49 279.526 104.39 300.926 104.39C302.126 105.09 303.026 105.59 304.026 106.29C304.026 112.29 304.026 118.19 304.026 124.19C302.526 125.89 300.426 126.29 298.026 126.29C276.426 126.19 254.726 126.19 233.526 126.19Z" fill="#779341"/>
<path d="M239.026 86.7898C238.226 85.9898 237.626 85.3898 237.026 84.7898C237.026 79.2898 237.026 73.7898 237.026 68.0898C237.626 67.4898 238.426 66.8898 239.326 66.0898C257.726 66.0898 276.426 66.0898 295.126 66.0898C296.926 67.6898 297.326 69.5898 297.326 71.8898C297.226 75.7898 297.326 79.6898 297.326 83.6898C296.726 84.6898 296.126 85.7898 295.426 86.8898C276.626 86.7898 257.926 86.7898 239.026 86.7898Z" fill="#779341"/>
<path d="M231.026 50.5898C230.326 49.4898 229.826 48.5898 229.026 47.3898C229.026 43.4898 229.126 39.2898 229.026 35.0898C229.026 32.9898 229.526 31.2898 231.126 29.7898C254.526 29.7898 278.126 29.7898 302.126 29.7898C302.526 30.3898 303.126 31.3898 304.126 33.0898C304.126 37.4898 304.126 42.9898 304.126 48.4898C303.426 49.1898 302.626 49.9898 301.926 50.6898C278.426 50.5898 254.926 50.5898 231.026 50.5898Z" fill="#779341"/>
<path d="M215.226 55.2896C213.926 48.0896 210.326 42.3896 205.026 37.6896C202.426 35.3896 199.326 33.6896 195.826 32.5896C191.526 31.2896 187.326 29.6896 182.626 29.5896H156.726C151.226 29.6896 145.726 29.5896 140.326 29.5896C139.926 29.9896 139.626 30.2896 139.026 30.8896C139.026 61.1896 139.026 91.3896 139.026 121.69C139.026 123.69 138.826 125.69 140.226 127.29C147.026 127.29 153.826 127.29 159.926 127.29C161.126 126.39 161.926 125.79 162.626 125.29C162.626 116.39 162.626 107.79 162.626 99.2896C162.626 99.1896 162.726 98.9896 162.726 98.8896C162.826 98.7896 162.926 98.6896 162.926 98.6896C171.226 97.9896 179.426 99.5896 187.526 97.6896C189.426 97.2896 191.326 96.9896 193.126 96.3896C199.826 93.9896 205.826 90.6896 210.026 84.7896C213.126 80.3896 215.626 75.5896 215.726 70.1896C216.026 65.2896 216.226 60.3896 215.226 55.2896ZM193.326 68.5896C192.226 70.1896 191.026 71.9896 189.826 73.7896C188.226 76.2896 185.426 76.8896 183.126 77.4896C181.326 77.9896 179.326 78.4896 177.426 78.4896C172.826 78.5896 168.126 78.4896 163.526 78.4896C163.326 78.4896 163.026 78.1896 162.826 78.0896C162.826 69.0896 162.826 60.0896 162.826 50.7896C163.926 50.6896 165.026 50.5896 166.126 50.5896C170.326 50.5896 174.526 50.2896 178.726 50.6896C182.826 50.9896 186.826 52.0896 189.826 55.2896C192.126 57.6896 193.126 60.5896 193.326 63.8896C193.326 65.3896 193.326 66.7896 193.326 68.5896Z" fill="#036E9B"/>
<g opacity="0.8">
<path d="M42.1259 137.956H47.826C49.926 137.956 51.626 138.556 52.826 139.756C54.026 140.956 54.6259 142.656 54.6259 144.956C54.6259 147.156 54.026 148.956 52.826 150.156C51.626 151.356 50.026 152.056 47.826 152.056H42.1259V137.956ZM45.6259 140.856V149.156H47.326C48.526 149.156 49.4259 148.756 50.0259 148.056C50.6259 147.356 50.9259 146.256 50.9259 144.856C50.9259 143.556 50.6259 142.556 50.0259 141.856C49.4259 141.156 48.5259 140.756 47.4259 140.756H45.6259V140.856Z" fill="#F1C400"/>
<path d="M59.1259 140.056C58.8259 140.356 58.326 140.556 57.826 140.556C57.326 140.556 56.9259 140.356 56.5259 140.056C56.1259 139.756 56.0259 139.356 56.0259 138.856C56.0259 138.356 56.2259 137.956 56.5259 137.656C56.8259 137.356 57.326 137.156 57.826 137.156C58.326 137.156 58.7259 137.356 59.1259 137.656C59.5259 137.956 59.6259 138.356 59.6259 138.856C59.6259 139.356 59.4259 139.756 59.1259 140.056ZM56.1259 152.056V141.456H59.6259V152.056H56.1259Z" fill="#F1C400"/>
<path d="M66.326 156.056C64.826 156.056 63.6259 155.756 62.7259 155.156C61.8259 154.556 61.3259 153.756 61.2259 152.756H64.5259C64.6259 153.056 64.8259 153.356 65.1259 153.556C65.4259 153.756 65.926 153.856 66.326 153.856C67.026 153.856 67.526 153.656 67.826 153.356C68.126 153.056 68.326 152.656 68.326 152.056V150.056H68.2259C68.0259 150.656 67.6259 151.056 67.0259 151.456C66.4259 151.856 65.7259 151.956 65.0259 151.956C63.7259 151.956 62.7259 151.456 61.9259 150.556C61.1259 149.656 60.826 148.356 60.826 146.656C60.826 144.956 61.2259 143.656 61.9259 142.656C62.6259 141.656 63.7259 141.256 65.0259 141.256C65.8259 141.256 66.4259 141.456 67.0259 141.856C67.6259 142.256 68.0259 142.756 68.2259 143.356H68.326V141.456H71.7259V151.956C71.7259 153.256 71.2259 154.256 70.2259 154.956C69.2259 155.656 68.026 156.056 66.326 156.056ZM66.4259 149.456C67.0259 149.456 67.5259 149.256 67.9259 148.756C68.3259 148.256 68.4259 147.656 68.4259 146.756C68.4259 145.956 68.2259 145.256 67.9259 144.756C67.6259 144.256 67.1259 144.056 66.4259 144.056C65.7259 144.056 65.3259 144.256 64.9259 144.756C64.5259 145.256 64.4259 145.956 64.4259 146.756C64.4259 147.556 64.6259 148.256 64.9259 148.756C65.2259 149.256 65.8259 149.456 66.4259 149.456Z" fill="#F1C400"/>
<path d="M76.6259 140.056C76.3259 140.356 75.826 140.556 75.326 140.556C74.826 140.556 74.4259 140.356 74.0259 140.056C73.6259 139.756 73.5259 139.356 73.5259 138.856C73.5259 138.356 73.7259 137.956 74.0259 137.656C74.3259 137.356 74.826 137.156 75.326 137.156C75.826 137.156 76.2259 137.356 76.6259 137.656C77.0259 137.956 77.1259 138.356 77.1259 138.856C77.1259 139.356 76.9259 139.756 76.6259 140.056ZM73.6259 152.056V141.456H77.1259V152.056H73.6259Z" fill="#F1C400"/>
<path d="M79.6259 139.056H83.1259V141.456H85.0259V143.956H83.1259V148.456C83.1259 149.156 83.526 149.556 84.326 149.556C84.626 149.556 84.8259 149.556 85.0259 149.556V152.056C84.6259 152.156 84.1259 152.156 83.5259 152.156C82.1259 152.156 81.1259 151.956 80.5259 151.456C79.9259 150.956 79.6259 150.256 79.6259 149.156V143.956H78.2259V141.456H79.6259V139.056Z" fill="#F1C400"/>
<path d="M89.5259 152.256C88.5259 152.256 87.7259 151.956 87.0259 151.356C86.3259 150.756 86.0259 149.956 86.0259 149.056C86.0259 148.056 86.4259 147.256 87.1259 146.756C87.8259 146.256 88.926 145.856 90.326 145.756L92.826 145.656V145.056C92.826 144.656 92.7259 144.356 92.4259 144.056C92.1259 143.756 91.826 143.756 91.326 143.756C90.826 143.756 90.5259 143.856 90.2259 144.056C89.9259 144.256 89.7259 144.556 89.7259 144.856H86.6259C86.7259 143.756 87.1259 142.856 88.0259 142.256C88.9259 141.556 90.1259 141.256 91.5259 141.256C92.9259 141.256 94.1259 141.556 94.9259 142.256C95.7259 142.956 96.2259 143.756 96.2259 144.856V152.156H92.826V150.656H92.7259C92.4259 151.156 92.0259 151.556 91.4259 151.856C90.8259 152.156 90.2259 152.256 89.5259 152.256ZM90.826 149.856C91.326 149.856 91.8259 149.756 92.2259 149.456C92.6259 149.156 92.826 148.756 92.826 148.356V147.656L90.9259 147.756C90.5259 147.756 90.1259 147.856 89.9259 148.056C89.7259 148.256 89.5259 148.556 89.5259 148.856C89.5259 149.156 89.6259 149.456 89.9259 149.656C90.2259 149.856 90.326 149.856 90.826 149.856Z" fill="#F1C400"/>
<path d="M97.826 152.056V137.956H101.326V152.056H97.826Z" fill="#F1C400"/>
<path d="M107.126 137.956H113.226C114.726 137.956 115.926 138.456 116.926 139.356C117.926 140.256 118.326 141.456 118.326 142.956C118.326 144.456 117.826 145.656 116.826 146.556C115.826 147.456 114.526 147.956 113.026 147.956H110.726V152.056H107.126V137.956ZM110.726 140.756V145.256H112.326C113.126 145.256 113.726 145.056 114.126 144.656C114.526 144.256 114.726 143.656 114.726 142.956C114.726 142.256 114.526 141.656 114.126 141.256C113.726 140.856 113.126 140.656 112.326 140.656H110.726V140.756Z" fill="#F1C400"/>
<path d="M119.726 152.056V137.956H123.226V152.056H119.726Z" fill="#F1C400"/>
<path d="M128.126 152.256C127.126 152.256 126.326 151.956 125.626 151.356C124.926 150.756 124.626 149.956 124.626 149.056C124.626 148.056 125.026 147.256 125.726 146.756C126.426 146.256 127.526 145.856 128.926 145.756L131.426 145.656V145.056C131.426 144.656 131.326 144.356 131.026 144.056C130.726 143.756 130.426 143.756 129.926 143.756C129.426 143.756 129.126 143.856 128.826 144.056C128.526 144.256 128.326 144.556 128.326 144.856H125.026C125.126 143.756 125.526 142.856 126.426 142.256C127.326 141.656 128.526 141.256 129.926 141.256C131.326 141.256 132.526 141.556 133.326 142.256C134.126 142.956 134.626 143.756 134.626 144.856V152.156H131.226V150.656H131.126C130.826 151.156 130.426 151.556 129.826 151.856C129.226 152.156 128.726 152.256 128.126 152.256ZM129.326 149.856C129.826 149.856 130.326 149.756 130.726 149.456C131.126 149.156 131.326 148.756 131.326 148.356V147.656L129.426 147.756C129.026 147.756 128.626 147.856 128.426 148.056C128.226 148.256 128.026 148.556 128.026 148.856C128.026 149.156 128.126 149.456 128.426 149.656C128.726 149.856 128.926 149.856 129.326 149.856Z" fill="#F1C400"/>
<path d="M137.226 139.056H140.726V141.456H142.626V143.956H140.726V148.456C140.726 149.156 141.126 149.556 141.926 149.556C142.226 149.556 142.426 149.556 142.626 149.556V152.056C142.226 152.156 141.726 152.156 141.126 152.156C139.726 152.156 138.726 151.956 138.126 151.456C137.526 150.956 137.226 150.256 137.226 149.156V143.956H135.826V141.456H137.226V139.056Z" fill="#F1C400"/>
<path d="M144.926 152.056V143.956H143.526V141.456H144.926V140.856C144.926 139.756 145.226 139.056 145.826 138.556C146.426 138.056 147.426 137.856 148.726 137.856C149.326 137.856 149.926 137.856 150.426 137.956V140.056C150.126 140.056 149.926 139.956 149.626 139.956C148.726 139.956 148.326 140.256 148.326 140.956V141.456H150.426V143.956H148.426V152.056H144.926Z" fill="#F1C400"/>
<path d="M160.626 150.856C159.626 151.856 158.326 152.356 156.626 152.356C154.926 152.356 153.626 151.856 152.626 150.856C151.626 149.856 151.126 148.556 151.126 146.756C151.126 145.056 151.626 143.656 152.626 142.656C153.626 141.656 154.926 141.156 156.626 141.156C158.326 141.156 159.626 141.656 160.626 142.656C161.626 143.656 162.126 145.056 162.126 146.756C162.026 148.556 161.526 149.856 160.626 150.856ZM155.226 149.056C155.526 149.556 156.026 149.856 156.626 149.856C157.226 149.856 157.726 149.556 158.026 149.056C158.326 148.556 158.526 147.756 158.526 146.856C158.526 145.856 158.326 145.156 158.026 144.656C157.726 144.156 157.226 143.856 156.626 143.856C156.026 143.856 155.526 144.156 155.226 144.656C154.926 145.156 154.726 145.956 154.726 146.856C154.726 147.756 154.826 148.456 155.226 149.056Z" fill="#F1C400"/>
<path d="M163.426 152.056V141.456H166.826V143.456H166.926C167.326 142.056 168.126 141.256 169.426 141.256C169.726 141.256 170.026 141.256 170.326 141.356V144.256C170.026 144.156 169.626 144.056 169.226 144.056C168.526 144.056 167.926 144.256 167.526 144.656C167.126 145.056 166.926 145.656 166.926 146.356V151.956H163.426V152.056Z" fill="#F1C400"/>
<path d="M171.226 152.056V141.456H174.626V143.556H174.726C174.926 142.856 175.326 142.356 175.826 141.956C176.326 141.556 177.026 141.356 177.726 141.356C178.526 141.356 179.126 141.556 179.726 141.956C180.326 142.356 180.526 142.956 180.726 143.656H180.826C181.026 142.956 181.426 142.456 182.026 142.056C182.626 141.656 183.326 141.456 184.126 141.456C185.126 141.456 186.026 141.756 186.626 142.456C187.226 143.156 187.626 143.956 187.626 145.056V152.256H184.026V145.956C184.026 144.856 183.526 144.256 182.526 144.256C182.026 144.256 181.726 144.456 181.426 144.756C181.126 145.056 181.026 145.456 181.026 146.056V152.356H177.726V145.956C177.726 145.456 177.626 145.056 177.326 144.756C177.026 144.456 176.726 144.356 176.226 144.356C175.726 144.356 175.426 144.556 175.126 144.856C174.826 145.156 174.726 145.556 174.726 146.156V152.456H171.226V152.056Z" fill="#F1C400"/>
<path d="M202.926 149.156V152.056H193.226V137.956H202.926V140.856H196.826V143.656H202.526V146.256H196.826V149.156H202.926Z" fill="#F1C400"/>
<path d="M204.726 152.056V141.456H208.126V143.456H208.226C208.526 142.756 208.926 142.156 209.426 141.856C209.926 141.556 210.626 141.256 211.426 141.256C212.626 141.256 213.526 141.656 214.126 142.356C214.726 143.056 215.126 144.056 215.126 145.356V152.156H211.626V146.056C211.626 145.456 211.526 144.956 211.226 144.656C210.926 144.356 210.526 144.156 209.926 144.156C209.426 144.156 208.926 144.356 208.626 144.756C208.326 145.156 208.126 145.656 208.126 146.156V152.156H204.726V152.056Z" fill="#F1C400"/>
<path d="M221.826 156.056C220.326 156.056 219.126 155.756 218.226 155.156C217.326 154.556 216.826 153.756 216.726 152.756H220.026C220.126 153.056 220.326 153.356 220.626 153.556C220.926 153.756 221.426 153.856 221.826 153.856C222.526 153.856 223.026 153.656 223.326 153.356C223.626 153.056 223.826 152.656 223.826 152.056V150.056H223.726C223.526 150.656 223.126 151.056 222.526 151.456C221.926 151.856 221.226 151.956 220.526 151.956C219.226 151.956 218.226 151.456 217.426 150.556C216.626 149.656 216.326 148.356 216.326 146.656C216.326 144.956 216.726 143.656 217.426 142.656C218.126 141.656 219.226 141.256 220.526 141.256C221.326 141.256 221.926 141.456 222.526 141.856C223.126 142.256 223.526 142.756 223.726 143.356H223.826V141.456H227.226V151.956C227.226 153.256 226.726 154.256 225.726 154.956C224.726 155.656 223.526 156.056 221.826 156.056ZM221.926 149.456C222.526 149.456 223.026 149.256 223.426 148.756C223.826 148.256 223.926 147.656 223.926 146.756C223.926 145.956 223.726 145.256 223.426 144.756C223.126 144.256 222.626 144.056 221.926 144.056C221.226 144.056 220.826 144.256 220.426 144.756C220.026 145.256 219.926 145.956 219.926 146.756C219.926 147.556 220.126 148.256 220.426 148.756C220.726 149.256 221.326 149.456 221.926 149.456Z" fill="#F1C400"/>
<path d="M232.126 140.056C231.826 140.356 231.326 140.556 230.826 140.556C230.326 140.556 229.926 140.356 229.526 140.056C229.126 139.756 229.026 139.356 229.026 138.856C229.026 138.356 229.226 137.956 229.526 137.656C229.826 137.356 230.326 137.156 230.826 137.156C231.326 137.156 231.726 137.356 232.126 137.656C232.526 137.956 232.626 138.356 232.626 138.856C232.626 139.356 232.426 139.756 232.126 140.056ZM229.126 152.056V141.456H232.626V152.056H229.126Z" fill="#F1C400"/>
<path d="M234.226 152.056V141.456H237.626V143.456H237.726C238.026 142.756 238.426 142.156 238.926 141.856C239.426 141.556 240.126 141.256 240.926 141.256C242.126 141.256 243.026 141.656 243.626 142.356C244.226 143.056 244.626 144.056 244.626 145.356V152.156H241.126V146.056C241.126 145.456 241.026 144.956 240.726 144.656C240.426 144.356 240.026 144.156 239.426 144.156C238.926 144.156 238.426 144.356 238.126 144.756C237.826 145.156 237.626 145.656 237.626 146.156V152.156H234.226V152.056Z" fill="#F1C400"/>
<path d="M253.326 148.756H256.426C256.226 149.856 255.726 150.756 254.826 151.356C253.926 151.956 252.726 152.356 251.426 152.356C249.726 152.356 248.426 151.856 247.426 150.856C246.426 149.856 246.026 148.556 246.026 146.856C246.026 145.156 246.526 143.756 247.426 142.756C248.326 141.756 249.626 141.256 251.326 141.256C252.926 141.256 254.226 141.756 255.126 142.756C256.026 143.756 256.526 145.056 256.526 146.656V147.656H249.326V147.856C249.326 148.456 249.526 149.056 249.926 149.456C250.326 149.856 250.826 150.056 251.426 150.056C251.926 150.056 252.326 149.956 252.626 149.756C252.926 149.556 253.226 149.056 253.326 148.756ZM251.326 143.656C250.826 143.656 250.326 143.856 250.026 144.156C249.726 144.456 249.426 144.956 249.426 145.556H253.326C253.326 144.956 253.126 144.556 252.726 144.156C252.326 143.756 251.926 143.656 251.326 143.656Z" fill="#F1C400"/>
<path d="M264.926 148.756H268.026C267.826 149.856 267.326 150.756 266.426 151.356C265.526 151.956 264.326 152.356 263.026 152.356C261.326 152.356 260.026 151.856 259.026 150.856C258.026 149.856 257.626 148.556 257.626 146.856C257.626 145.156 258.126 143.756 259.026 142.756C259.926 141.756 261.226 141.256 262.926 141.256C264.526 141.256 265.826 141.756 266.726 142.756C267.626 143.756 268.126 145.056 268.126 146.656V147.656H260.926V147.856C260.926 148.456 261.126 149.056 261.526 149.456C261.926 149.856 262.426 150.056 263.026 150.056C263.526 150.056 263.926 149.956 264.226 149.756C264.526 149.556 264.726 149.056 264.926 148.756ZM262.926 143.656C262.426 143.656 261.926 143.856 261.626 144.156C261.326 144.456 261.026 144.956 261.026 145.556H264.926C264.926 144.956 264.726 144.556 264.326 144.156C263.926 143.756 263.426 143.656 262.926 143.656Z" fill="#F1C400"/>
<path d="M269.426 152.056V141.456H272.826V143.456H272.926C273.326 142.056 274.126 141.256 275.426 141.256C275.726 141.256 276.026 141.256 276.326 141.356V144.256C276.026 144.156 275.626 144.056 275.226 144.056C274.526 144.056 273.926 144.256 273.526 144.656C273.126 145.056 272.926 145.656 272.926 146.356V151.956H269.426V152.056Z" fill="#F1C400"/>
<path d="M280.326 140.056C280.026 140.356 279.526 140.556 279.026 140.556C278.526 140.556 278.126 140.356 277.726 140.056C277.326 139.756 277.226 139.356 277.226 138.856C277.226 138.356 277.426 137.956 277.726 137.656C278.026 137.356 278.526 137.156 279.026 137.156C279.526 137.156 279.926 137.356 280.326 137.656C280.726 137.956 280.826 138.356 280.826 138.856C280.826 139.356 280.626 139.756 280.326 140.056ZM277.326 152.056V141.456H280.826V152.056H277.326Z" fill="#F1C400"/>
<path d="M282.426 152.056V141.456H285.826V143.456H285.926C286.226 142.756 286.626 142.156 287.126 141.856C287.626 141.556 288.326 141.256 289.126 141.256C290.326 141.256 291.226 141.656 291.826 142.356C292.426 143.056 292.826 144.056 292.826 145.356V152.156H289.326V146.056C289.326 145.456 289.226 144.956 288.926 144.656C288.626 144.356 288.226 144.156 287.626 144.156C287.126 144.156 286.626 144.356 286.326 144.756C286.026 145.156 285.826 145.656 285.826 146.156V152.156H282.426V152.056Z" fill="#F1C400"/>
<path d="M299.626 156.056C298.126 156.056 296.926 155.756 296.026 155.156C295.126 154.556 294.626 153.756 294.526 152.756H297.826C297.926 153.056 298.126 153.356 298.426 153.556C298.726 153.756 299.226 153.856 299.626 153.856C300.326 153.856 300.826 153.656 301.126 153.356C301.426 153.056 301.626 152.656 301.626 152.056V150.056H301.526C301.326 150.656 300.926 151.056 300.326 151.456C299.726 151.856 299.026 151.956 298.326 151.956C297.026 151.956 296.026 151.456 295.226 150.556C294.426 149.656 294.126 148.356 294.126 146.656C294.126 144.956 294.526 143.656 295.226 142.656C295.926 141.656 297.026 141.256 298.326 141.256C299.126 141.256 299.726 141.456 300.326 141.856C300.926 142.256 301.326 142.756 301.526 143.356H301.626V141.456H305.026V151.956C305.026 153.256 304.526 154.256 303.526 154.956C302.526 155.656 301.226 156.056 299.626 156.056ZM299.726 149.456C300.326 149.456 300.826 149.256 301.226 148.756C301.626 148.256 301.726 147.656 301.726 146.756C301.726 145.956 301.526 145.256 301.226 144.756C300.926 144.256 300.426 144.056 299.726 144.056C299.026 144.056 298.626 144.256 298.226 144.756C297.826 145.256 297.726 145.956 297.726 146.756C297.726 147.556 297.926 148.256 298.226 148.756C298.526 149.256 299.026 149.456 299.726 149.456Z" fill="#F1C400"/>
<path d="M310.526 147.956H313.926C314.026 148.456 314.226 148.856 314.726 149.156C315.226 149.456 315.826 149.556 316.426 149.556C317.126 149.556 317.626 149.456 318.126 149.156C318.626 148.856 318.726 148.556 318.726 148.056C318.726 147.656 318.526 147.356 318.226 147.156C317.926 146.956 317.326 146.756 316.526 146.556L314.726 146.156C313.426 145.956 312.426 145.456 311.826 144.756C311.226 144.056 310.826 143.156 310.826 142.156C310.826 140.756 311.326 139.756 312.426 138.856C313.526 137.956 314.826 137.656 316.426 137.656C318.126 137.656 319.526 138.056 320.526 138.856C321.526 139.656 322.026 140.656 322.026 142.056H318.726C318.726 141.556 318.426 141.156 318.026 140.856C317.626 140.556 317.026 140.456 316.426 140.456C315.826 140.456 315.326 140.556 314.926 140.856C314.526 141.156 314.326 141.456 314.326 141.856C314.326 142.256 314.526 142.556 314.826 142.756C315.126 142.956 315.726 143.156 316.426 143.356L318.226 143.656C319.626 143.956 320.626 144.356 321.326 145.056C322.026 145.756 322.326 146.556 322.326 147.656C322.326 149.056 321.826 150.156 320.726 150.956C319.626 151.756 318.226 152.156 316.426 152.156C314.626 152.156 313.226 151.756 312.126 151.056C311.026 150.356 310.526 149.356 310.526 147.956Z" fill="#F1C400"/>
<path d="M330.726 148.756H333.826C333.626 149.856 333.126 150.756 332.226 151.356C331.326 151.956 330.126 152.356 328.826 152.356C327.126 152.356 325.826 151.856 324.826 150.856C323.826 149.856 323.426 148.556 323.426 146.856C323.426 145.156 323.926 143.756 324.826 142.756C325.726 141.756 327.026 141.256 328.726 141.256C330.326 141.256 331.626 141.756 332.526 142.756C333.426 143.756 333.926 145.056 333.926 146.656V147.656H326.726V147.856C326.726 148.456 326.926 149.056 327.326 149.456C327.726 149.856 328.226 150.056 328.826 150.056C329.326 150.056 329.726 149.956 330.026 149.756C330.326 149.556 330.626 149.056 330.726 148.756ZM328.726 143.656C328.226 143.656 327.726 143.856 327.426 144.156C327.126 144.456 326.826 144.956 326.826 145.556H330.726C330.726 144.956 330.526 144.556 330.126 144.156C329.726 143.756 329.326 143.656 328.726 143.656Z" fill="#F1C400"/>
<path d="M335.326 152.056V141.456H338.726V143.456H338.826C339.226 142.056 340.026 141.256 341.326 141.256C341.626 141.256 341.926 141.256 342.226 141.356V144.256C341.926 144.156 341.526 144.056 341.126 144.056C340.426 144.056 339.826 144.256 339.426 144.656C339.026 145.056 338.826 145.656 338.826 146.356V151.956H335.326V152.056Z" fill="#F1C400"/>
<path d="M353.326 141.456L349.826 152.056H345.826L342.226 141.456H345.926L347.826 149.156H347.926L349.726 141.456H353.326Z" fill="#F1C400"/>
<path d="M357.226 140.056C356.926 140.356 356.426 140.556 355.926 140.556C355.426 140.556 355.026 140.356 354.626 140.056C354.226 139.756 354.126 139.356 354.126 138.856C354.126 138.356 354.326 137.956 354.626 137.656C354.926 137.356 355.426 137.156 355.926 137.156C356.426 137.156 356.826 137.356 357.226 137.656C357.626 137.956 357.726 138.356 357.726 138.856C357.726 139.356 357.526 139.756 357.226 140.056ZM354.226 152.056V141.456H357.726V152.056H354.226Z" fill="#F1C400"/>
<path d="M369.426 145.656H366.226C366.126 145.056 366.026 144.656 365.626 144.356C365.226 144.056 364.926 143.856 364.426 143.856C363.826 143.856 363.326 144.156 363.026 144.656C362.726 145.156 362.526 145.856 362.526 146.856C362.526 147.756 362.726 148.556 363.026 149.056C363.326 149.556 363.826 149.856 364.426 149.856C364.926 149.856 365.326 149.656 365.626 149.356C365.926 149.056 366.126 148.656 366.226 148.056H369.426C369.426 149.456 368.926 150.456 368.026 151.256C367.126 152.056 365.926 152.456 364.426 152.456C362.726 152.456 361.426 151.956 360.426 150.956C359.426 149.956 359.026 148.556 359.026 146.856C359.026 145.156 359.526 143.756 360.426 142.756C361.326 141.756 362.726 141.256 364.326 141.256C365.826 141.256 367.026 141.656 367.926 142.456C368.826 143.256 369.426 144.356 369.426 145.656Z" fill="#F1C400"/>
<path d="M377.726 148.756H380.826C380.626 149.856 380.126 150.756 379.226 151.356C378.326 151.956 377.126 152.356 375.826 152.356C374.126 152.356 372.826 151.856 371.826 150.856C370.826 149.856 370.426 148.556 370.426 146.856C370.426 145.156 370.926 143.756 371.826 142.756C372.726 141.756 374.026 141.256 375.726 141.256C377.326 141.256 378.626 141.756 379.526 142.756C380.426 143.756 380.926 145.056 380.926 146.656V147.656H373.726V147.856C373.726 148.456 373.926 149.056 374.326 149.456C374.726 149.856 375.226 150.056 375.826 150.056C376.326 150.056 376.726 149.956 377.026 149.756C377.326 149.556 377.626 149.056 377.726 148.756ZM375.726 143.656C375.226 143.656 374.726 143.856 374.426 144.156C374.126 144.456 373.826 144.956 373.826 145.556H377.726C377.726 144.956 377.526 144.556 377.126 144.156C376.726 143.756 376.326 143.656 375.726 143.656Z" fill="#F1C400"/>
<path d="M382.126 144.656C382.126 143.556 382.526 142.756 383.426 142.156C384.326 141.556 385.426 141.256 386.926 141.256C388.326 141.256 389.526 141.556 390.326 142.256C391.126 142.956 391.626 143.756 391.626 144.856H388.426C388.426 144.456 388.226 144.156 388.026 143.956C387.826 143.756 387.326 143.656 386.926 143.656C386.526 143.656 386.126 143.756 385.926 143.956C385.726 144.156 385.526 144.356 385.526 144.656C385.526 145.056 385.926 145.356 386.726 145.556L388.926 145.956C390.026 146.156 390.726 146.556 391.226 146.956C391.726 147.356 391.926 148.056 391.926 148.856C391.926 149.956 391.426 150.856 390.526 151.456C389.626 152.056 388.426 152.456 386.926 152.456C385.426 152.456 384.226 152.156 383.326 151.456C382.426 150.756 381.926 149.956 381.926 148.856H385.326C385.426 149.256 385.526 149.556 385.826 149.756C386.126 149.956 386.526 150.056 387.026 150.056C387.526 150.056 387.826 149.956 388.126 149.856C388.426 149.756 388.526 149.456 388.526 149.156C388.526 148.956 388.426 148.756 388.226 148.656C388.026 148.556 387.726 148.456 387.326 148.356L385.326 147.956C384.326 147.756 383.526 147.356 382.926 146.856C382.326 146.356 382.126 145.456 382.126 144.656Z" fill="#F1C400"/>
</g>
</svg>
